…
# Transform to study level and calculate StudyMonth
dfTransformed <- Transform_CumCount(
  dfInput = dfInput,
  vBy = "StudyID"
)

print(dfTransformed)
#> # A tibble: 194 × 7
#>    StudyID        MonthYYYYMM StudyMonth Numerator Denominator Metric GroupCount
#>    <chr>                <dbl>      <int>     <int>       <int>  <dbl>      <int>
#>  1 AA-AA-000-0000      200309          1         1           2  0.5            1
#>  2 AA-AA-000-0000      200310          2         1           5  0.2            3
#>  3 AA-AA-000-0000      200311          3         1          10  0.1            5
#>  4 AA-AA-000-0000      200312          4         3          16  0.188          7
#>  5 AA-AA-000-0000      200401          5         4          33  0.121         12
#>  6 AA-AA-000-0000      200402          6         5          50  0.1           14
#>  7 AA-AA-000-0000      200403          7        11          78  0.141         19
#>  8 AA-AA-000-0000      200404          8        23         114  0.202         23
#>  9 AA-AA-000-0000      200405          9        34         161  0.211         29
#> 10 AA-AA-000-0000      200406         10        39         213  0.183         35
#> # ℹ 184 more rows
```
