Cookbook • gsm.studykri
…
dfInput <- gsm.studykri::Input_CountSiteByMonth(
  dfSubjects = lPortfolio$Raw_SUBJ,
  dfNumerator = lPortfolio$Raw_AE,
  dfDenominator = lPortfolio$Raw_VISIT,
  strStudyCol = "studyid",
  strGroupCol = "invid",
  strGroupLevel = "Site",
  strSubjectCol = "subjid",
  strNumeratorDateCol = "aest_dt",
  strDenominatorDateCol = "visit_dt",
)

dfInput
#> # A tibble: 19,901 × 7
#>    GroupID    GroupLevel Numerator Denominator Metric StudyID MonthYYYYMM
#>    <chr>      <chr>          <int>       <int>  <dbl> <chr>         <dbl>
#>  1 AA-1_0X001 Site               1           1    1   AA-1         201610
#>  2 AA-1_0X001 Site               1           1    1   AA-1         201611
#>  3 AA-1_0X001 Site               1           1    1   AA-1         201803
#>  4 AA-1_0X001 Site               1           0   NA   AA-1         201806
#>  5 AA-1_0X003 Site               3           1    3   AA-1         200410
#>  6 AA-1_0X003 Site               2           1    2   AA-1         200504
#>  7 AA-1_0X003 Site               1           0   NA   AA-1         200506
#>  8 AA-1_0X003 Site               1           1    1   AA-1         200602
#>  9 AA-1_0X003 Site               1           2    0.5 AA-1         200605
#> 10 AA-1_0X003 Site               1           1    1   AA-1         200907
#> # ℹ 19,891 more rows
…
dfInputDays <- gsm.studykri::Input_CountSiteByMonth(
  dfSubjects = lPortfolio$Raw_SUBJ,
  dfNumerator = lPortfolio$Raw_AE,
  dfDenominator = lPortfolio$Raw_SUBJ,
  strStudyCol = "studyid",
  strGroupCol = "invid",
  strGroupLevel = "Site",
  strSubjectCol = "subjid",
  strNumeratorDateCol = "aest_dt",
  strDenominatorDateCol = "firstparticipantdate",
  strDenominatorEndDateCol = "lastparticipantdate"
)

dfInputDays
#> # A tibble: 24,486 × 7
#>    GroupID    GroupLevel Numerator Denominator Metric StudyID MonthYYYYMM
#>    <chr>      <chr>          <int>       <int>  <dbl> <chr>         <dbl>
#>  1 AA-1_0X001 Site               1          31 0.0323 AA-1         201610
#>  2 AA-1_0X001 Site               1          30 0.0333 AA-1         201611
#>  3 AA-1_0X001 Site               1          31 0.0323 AA-1         201803
#>  4 AA-1_0X001 Site               1          30 0.0333 AA-1         201806
#>  5 AA-1_0X003 Site               3          31 0.0968 AA-1         200410
#>  6 AA-1_0X003 Site               2          30 0.0667 AA-1         200504
#>  7 AA-1_0X003 Site               1          30 0.0333 AA-1         200506
#>  8 AA-1_0X003 Site               1          56 0.0179 AA-1         200602
#>  9 AA-1_0X003 Site               1          62 0.0161 AA-1         200605
#> 10 AA-1_0X003 Site               1          31 0.0323 AA-1         200907
#> # ℹ 24,476 more rows

Next we transform the data to return the cumulated event counts on
study-level by study month. We define the first study month to be the
month in which we have reached the first 25 Denominator counts across
all sites to account for data artifacts.

dfTransformed <- gsm.studykri::Transform_CumCount(
  dfInput,
  nMinDenominator = 25,
  vBy = c("StudyID")
)

dfTransformed
#> # A tibble: 740 × 7
#>    StudyID MonthYYYYMM StudyMonth Numerator Denominator Metric GroupCount
#>    <chr>         <dbl>      <int>     <int>       <int>  <dbl>      <int>
#>  1 AA-1         200404          1         6          39  0.154         13
#>  2 AA-1         200405          2        12          60  0.2           16
#>  3 AA-1         200406          3        12          80  0.15          16
#>  4 AA-1         200407          4        16         106  0.151         18
#>  5 AA-1         200408          5        19         137  0.139         22
#>  6 AA-1         200409          6        26         168  0.155         23
#>  7 AA-1         200410          7        31         200  0.155         24
#>  8 AA-1         200411          8        34         233  0.146         24
#>  9 AA-1         200412          9        36         268  0.134         22
#> 10 AA-1         200501         10        40         300  0.133         23
#> # ℹ 730 more rows

Analyze_StudyKRI_PredictBounds calculates upper and lower confidence
intervalls of the study metrics KRI using a bootstrap technique.

dfBounds <- dfInput %>%
  gsm.studykri::Analyze_StudyKRI_PredictBounds()
#> Using all 4 studies found in dfInput

dfBounds
#> # A tibble: 752 × 6
#>    StudyID StudyMonth Median  Lower Upper BootstrapCount
#>    <chr>        <int>  <dbl>  <dbl> <dbl>          <int>
#>  1 AA-1             1  0.111 0      0.281           1000
#>  2 AA-1             2  0.162 0.0435 0.318           1000
#>  3 AA-1             3  0.159 0.0428 0.318           1000
#>  4 AA-1             4  0.143 0.0550 0.286           1000
#>  5 AA-1             5  0.142 0.0575 0.255           1000
#>  6 AA-1             6  0.146 0.0703 0.243           1000
#>  7 AA-1             7  0.152 0.0710 0.244           1000
#>  8 AA-1             8  0.146 0.0644 0.240           1000
#>  9 AA-1             9  0.138 0.0588 0.228           1000
#> 10 AA-1            10  0.133 0.0544 0.220           1000
#> # ℹ 742 more rows
…
We then calculate a reference confidence interval based on a set of
reference studies.

dfStudyRef <- tibble(
  study = "AA-1",
  studyref = c("AA-2", "AA-3", "AA-4")
)

dfBoundsRef <- gsm.studykri::Analyze_StudyKRI_PredictBoundsRef(dfInput, dfStudyRef)
#> Resampling with minimum group count: 78

dfBoundsRef
#> # A tibble: 191 × 9
#>    StudyMonth Median  Lower Upper BootstrapCount GroupCount StudyCount StudyID
#>         <int>  <dbl>  <dbl> <dbl>          <int>      <int>      <int> <chr>  
#>  1          1  0.135 0.0286 0.289           1000         78          3 AA-1   
#>  2          2  0.137 0.0227 0.279           1000         78          3 AA-1   
#>  3          3  0.143 0.0428 0.276           1000         78          3 AA-1   
#>  4          4  0.143 0.0476 0.260           1000         78          3 AA-1   
#>  5          5  0.137 0.048  0.245           1000         78          3 AA-1   
#>  6          6  0.133 0.0530 0.224           1000         78          3 AA-1   
#>  7          7  0.136 0.0642 0.213           1000         78          3 AA-1   
#>  8          8  0.134 0.0728 0.208           1000         78          3 AA-1   
#>  9          9  0.130 0.0703 0.202           1000         78          3 AA-1   
#> 10         10  0.121 0.0701 0.186           1000         78          3 AA-1   
#> # ℹ 181 more rows
#> # ℹ 1 more variable: StudyRefID <chr>
…
